<svg xmlns="http://www.w3.org/2000/svg" width="16" height="16" viewBox="0 0 16 16">
    <g fill="none" fill-rule="evenodd">
        <path d="M0 0h16v16H0z"/>
        <path fill="#03CF5D" stroke="#1B1B1B" d="M3.786 2.001c.595.01 1.132.425 1.292.978.196.708.39 1.418.58 2.128a1.22 1.22 0 0 1-.457 1.27s-.32.22-.472.466c-.532.86.287 1.963 1.18 2.842.767.755 1.686 1.368 2.68 1.847.529.25 1.154-.079 1.424-.562a.652.652 0 0 1 .69-.293c.768.19 1.532.392 2.297.594.579.16.989.696.998 1.277.003.58.038 1.2-.334 1.624-.213.243-.525.41-.862.452-.259.029-.375.03-.566.037-4.227.15-8.289-2.648-9.998-6.468a10.307 10.307 0 0 1-.887-4.808c.042-.697.541-1.37 1.348-1.384.362-.002.724-.001 1.087 0z"/>
        <g stroke="#1B1B1B" stroke-linecap="round" stroke-linejoin="round">
            <path d="M10.764 2.407h2.829v2.829M13.593 2.407l-4.95 4.95"/>
        </g>
    </g>
</svg>
