<svg xmlns="http://www.w3.org/2000/svg" width="24" height="24" viewBox="0 0 24 24">
    <g fill="none" fill-rule="evenodd">
        <path fill="none" d="M0 0h24v24H0z"/>
        <path d="M0 0h24v24H0z"/>
        <path stroke="#1B1B1B" d="M5.873 2.002c.939.015 1.786.67 2.039 1.543.31 1.12.615 2.24.915 3.36a1.926 1.926 0 0 1-.72 2.007s-.506.348-.745.734c-.84 1.36.453 3.1 1.862 4.488 1.211 1.193 2.663 2.16 4.232 2.917.835.395 1.823-.125 2.249-.888a1.03 1.03 0 0 1 1.089-.462c1.212.299 2.42.618 3.626.937a2.16 2.16 0 0 1 1.576 2.016c.005.915.061 1.896-.526 2.566a2.186 2.186 0 0 1-1.361.712c-.409.046-.592.048-.894.059-6.674.236-13.088-4.182-15.787-10.212a16.275 16.275 0 0 1-1.4-7.592c.066-1.101.854-2.162 2.128-2.185C4.728 2 5.3 2 5.873 2.002z"/>
    </g>
</svg>
