<svg xmlns="http://www.w3.org/2000/svg" width="24" height="24" viewBox="0 0 24 24">
    <g fill="none" fill-rule="evenodd">
        <path fill="none" d="M0 0h24v24H0z"/>
        <path d="M0 0h24v24H0z"/>
        <path fill="#FFF" stroke="#1B1B1B" d="M6 3h3v5H2V7a4 4 0 0 1 4-4z"/>
        <path fill="#FFF" stroke="#1B1B1B" stroke-linejoin="round" d="M6 3h12.581a3 3 0 0 1 1.908.685l.447.368a3.51 3.51 0 0 1 1.278 2.71V22l-3.563-1.831L15.537 22l-2.987-1.831L8.86 22V8.66A7.028 7.028 0 0 0 6 3z"/>
        <path stroke="#1B1B1B" stroke-linecap="round" stroke-linejoin="round" d="M11.052 7H20.3M11.052 12H20.3M17.052 14H20.3M17.052 16H20.3"/>
    </g>
</svg>
