<svg xmlns="http://www.w3.org/2000/svg" width="16" height="16" viewBox="0 0 16 16">
    <g fill="none" fill-rule="evenodd">
        <path d="M0 0h16v16H0z"/>
        <path fill="#3A3A3A" d="M14 2L2 8l4.5 1.5L8 14z"/>
    </g>
</svg>
