<svg xmlns="http://www.w3.org/2000/svg" width="36" height="36" viewBox="0 0 36 36">
    <g fill="none" fill-rule="evenodd">
        <path d="M0 0h36v36H0z"/>
        <path fill="#FB5756" stroke="#3A3A3A" stroke-linejoin="round" d="M18 31c5.333-9.054 8-15.054 8-18a8 8 0 1 0-16 0c0 2.946 2.667 8.946 8 18z"/>
        <circle cx="18" cy="13" r="4" fill="#FFF" stroke="#3A3A3A"/>
    </g>
</svg>
